…
``` r
salaries_df <- rbind(phd_df, postdoc_df, adjunkt_df, lektor_df) %>%
  mutate(
    median_year = median,
    median_month = median_year / 12,
    mean_year = mean,
    mean_month = mean_year / 12,
    is_globe = inst_id == "GLOBE",
    role = factor(role, levels = c("PhD", "postdoc",
                                   "assistant professor", "associate professor"))
  ) %>%
  as_tibble

salaries_df
#> # A tibble: 59 × 9
#>    inst_id    mean  median role  median_year median_month mean_year mean_month
#>    <chr>     <dbl>   <dbl> <fct>       <dbl>        <dbl>     <dbl>      <dbl>
#>  1 BMI     453679. 435409. PhD       435409.       36284.   453679.     37807.
#>  2 BRIC    435546. 406705. PhD       406705.       33892.   435546.     36295.
#>  3 CBMR    492969. 492946. PhD       492946.       41079.   492969.     41081.
#>  4 CPR     475042. 465580. PhD       465580.       38798.   475042.     39587.
#>  5 FS      479108. 489735. PhD       489735.       40811.   479108.     39926.
#>  6 GLOBE   433375. 430046. PhD       430046.       35837.   433375.     36115.
#>  7 ICMM    449020. 459614. PhD       459614.       38301.   449020.     37418.
#>  8 IF      428493. 435409. PhD       435409.       36284.   428493.     35708.
#>  9 IFSV    468980. 465580. PhD       465580.       38798.   468980.     39082.
#> 10 IKV     469795. 489735. PhD       489735.       40811.   469795.     39150.
#> # ℹ 49 more rows
#> # ℹ 1 more variable: is_globe <lgl>
```
…
